…
*pvbessmicrosimr* includes two survey datasets *pv_survey* and
*pv_survey_oo* where the latter dataset is restricted to owner-occupiers
only.

``` r
dim(pv_survey_oo)
#> [1] 752  43
```

The meaning of the features present in *pv_survey* and *pv_survey_oo*
are described by *pv_questiobs* and *pv_qanda*.

``` r
pv_questions
#> # A tibble: 43 × 2
#>    question_code question                     
#>    <chr>         <chr>                        
#>  1 serial        Serial                       
#>  2 qa            Gender                       
#>  3 qb            Age                          
#>  4 qc2           Region                       
#>  5 qd            Social Grade                 
#>  6 qe            Work status                  
#>  7 qf            Education level              
#>  8 q1            Property type                
#>  9 q2            Stories in building          
#> 10 q3            Number of property's bedrooms
#> # ℹ 33 more rows
```
…
